C:\Users\gsharma\AppData\Local\Programs\Python\Python37-32\python.exe "C:\Program Files\JetBrains\PyCharm Community Edition 2019.2.3\helpers\pydev\pydevconsole.py" --mode=client --port=65241
import sys; print('Python %s on %s' % (sys.version, sys.platform))
sys.path.extend(['C:\\Work\\RackAutomation', 'C:/Work/RackAutomation'])
PyDev console: starting.
Python 3.7.4 (tags/v3.7.4:e09359112e, Jul  8 2019, 19:29:22) [MSC v.1916 32 bit (Intel)] on win32
runfile('C:/Work/RackAutomation/MDC.py', wdir='C:/Work/RackAutomation')
Not On Summary Screen, Moving to Summary Screen
Something Went Wrong while Moving to Live View, Staying on Summary Page
The Icons that are Present:: []
The Icons that are Absent:: ['Snapshot.PNG', 'Bookmark.PNG', 'Switch.PNG', 'Cam1.PNG', 'Cam2.PNG', 'Cam3.PNG', 'Cam11.PNG', 'Cam22.PNG', 'Cam33.PNG', 'StatusAlarm.PNG', 'StatusCamera.PNG', 'StatusOfficer.PNG', 'StatusUSB.PNG', 'StatusWifi.PNG', 'Next.PNG', 'ICVExit.PNG']
The OSDs that are Present:: ['GPSMPH.PNG']
The OSDs that are Absent:: ['OSDDate.PNG', 'OSDTime.PNG', 'GPSS.PNG', 'GPSW.PNG']
connect
--> Framing: {"command": "status"}
MDC Not Loaded, Attempting to Load MDC
All Steps were Executed Successfully
[['5678', '6849589', '3474246', 'Burbidge Street', 'Ty', 'efgh', 'DWI', 'DWI', 'Gender = FemaleRace = Bbbblackwas truck a accident', 'Busch']]
Here's the metadata that got recorded::  [['5678', '6849589', '3474246', 'Burbidge Street', 'Ty', 'efgh', 'DWI', 'DWI', 'Gender = FemaleRace = Bbbblackwas truck a accident', 'Busch']]
On Live View Screen, Starting Icons Check
The Icons that are Present:: ['Snapshot.PNG', 'Bookmark.PNG', 'Switch.PNG', 'Cam1.PNG', 'Cam2.PNG', 'StatusCamera.PNG', 'StatusOfficer.PNG', 'StatusUSB.PNG']
The Icons that are Absent:: ['Cam3.PNG', 'Cam11.PNG', 'Cam22.PNG', 'Cam33.PNG', 'StatusAlarm.PNG', 'StatusWifi.PNG', 'Next.PNG', 'ICVExit.PNG']
The OSDs that are Present:: ['OSDDate.PNG', 'OSDTime.PNG', 'GPSS.PNG', 'GPSW.PNG', 'GPSMPH.PNG']
The OSDs that are Absent:: []
connect
--> Framing: {"command": "status"}
On Recording Screen, Starting Recording
All Steps were Executed Successfully
On Recording Screen, Starting Recording
All Steps were Executed Successfully
[['9012', '2648432', '9197967', 'Clifford Street', 'Denny', 'ijkl', 'STP', 'STP', 'Gender = FemaleRace = Aaaasiancar was into There a', 'Truex Jr.'], ['7890', '1056255', '6481946', 'Ellington Street', 'Jamie', 'qrst', 'CAD', 'CAD', 'Gender = FemaleRace = OoootherThere car crash a th', 'Truex Jr.']]
Here's the metadata that got recorded::  [['5678', '6849589', '3474246', 'Burbidge Street', 'Ty', 'efgh', 'DWI', 'DWI', 'Gender = FemaleRace = Bbbblackwas truck a accident', 'Busch'], ['9012', '2648432', '9197967', 'Clifford Street', 'Denny', 'ijkl', 'STP', 'STP', 'Gender = FemaleRace = Aaaasiancar was into There a', 'Truex Jr.'], ['7890', '1056255', '6481946', 'Ellington Street', 'Jamie', 'qrst', 'CAD', 'CAD', 'Gender = FemaleRace = OoootherThere car crash a th', 'Truex Jr.']]
connect
--> Framing: {"command": "status"}
Starting ICV Upload
Done Uploading, took 90 seconds
connect
--> Framing: {"command": "paths"}
--> Framing: {"command": "ls", "path": "/media/ubuntu/USB/cobanvideos/", "filters": ["*.mp4"], "sort": "time"}
Following are the Filenames on the Firmware::  ['1013@20200522134453-0.mp4', '1013@20200522134456-1.mp4', '1013@20200522134327-1.mp4', '1013@20200522134324-0.mp4', '1013@20200522134147-1.mp4', '1013@20200522134144-0.mp4']
--> Framing: {"command": "readfile", "filename": "//var//log//runlog.log"}
--> Framing: {"command": "readfile", "filename": "//home//ubuntu//Metadata//gsnext1_metadata.txt"}
--> Framing: {"command": "readfile", "filename": "//home//ubuntu//h1_exe//config//template.config"}
DONE Comparing template.config changes, Check template_diff.config
--> Framing: {"command": "3v"}
The metadata list has following number of metadata sets::  3
Enterred metadata matches in the following video list, this must have been the list of videos recorded ::
 ['1013@20200522134144-0', '1013@20200522134147-1', '1013@20200522134324-0', '1013@20200522134327-1']
**** TESTCASE: Comparing Recorded Videos ****
 **** With Videos on the FW
{'1013@20200522134324-0', '1013@20200522134144-0', '1013@20200522134327-1', '1013@20200522134456-1', '1013@20200522134147-1', '1013@20200522134453-0'}
Printing List of Videos Recorded
{'1013@20200522134324-0', '1013@20200522134144-0', '1013@20200522134327-1', '1013@20200522134147-1'}
**** TESTCASE COMPLETED :  TESTED OK ****
 Following Videos Match on the FW ****
{'1013@20200522134324-0', '1013@20200522134144-0', '1013@20200522134327-1', '1013@20200522134147-1'}
['1013@20200522134456-1', '1013@20200522134456-1-000', '1013@20200522134453-0', '1013@20200522134453-0-000', '1013@20200522134453-0', '1013@20200522134327-1-000', '1013@20200522134324-0', '1013@20200522134327-1', '1013@20200522134324-0', '1013@20200522134324-0-000', '1013@20200522134324-0', '1013@20200522134147-1', '1013@20200522134144-0', '1013@20200522134147-1-000', '1013@20200522134144-0', '1013@20200522134144-0', '1013@20200522134144-0-000', '1013@20200522133440-1', '1013@20200522133437-0', '1013@20200522133437-0', '1013@20200522133437-0-000', '1013@20200522133312-1-000', '1013@20200522133309-0', '1013@20200522133312-1', '1013@20200522133309-0', '1013@20200522133309-0', '1013@20200522133309-0-000', '1013@20200522133132-1-000', '1013@20200522133129-0']
Following Videos are to be compared on the Server::
 ['1013@20200522134453-0.mp4', '1013@20200522134456-1.mp4', '1013@20200522134327-1.mp4', '1013@20200522134324-0.mp4', '1013@20200522134147-1.mp4', '1013@20200522134144-0.mp4']
**** TESTCASE COMPLETED : TESTED OK ****
 **** Following Video are on the server
['1013@20200522134456-1', '1013@20200522134456-1-000', '1013@20200522134453-0', '1013@20200522134453-0-000', '1013@20200522134453-0', '1013@20200522134327-1-000', '1013@20200522134324-0', '1013@20200522134327-1', '1013@20200522134324-0', '1013@20200522134324-0-000', '1013@20200522134324-0', '1013@20200522134147-1', '1013@20200522134144-0', '1013@20200522134147-1-000', '1013@20200522134144-0', '1013@20200522134144-0', '1013@20200522134144-0-000', '1013@20200522133440-1', '1013@20200522133437-0', '1013@20200522133437-0', '1013@20200522133437-0-000', '1013@20200522133312-1-000', '1013@20200522133309-0', '1013@20200522133312-1', '1013@20200522133309-0', '1013@20200522133309-0', '1013@20200522133309-0-000', '1013@20200522133132-1-000', '1013@20200522133129-0']
Printing List of Videos Recorded
Following Videos are to be compared on the Server::
 {'1013@20200522134324-0', '1013@20200522134144-0', '1013@20200522134327-1', '1013@20200522134456-1', '1013@20200522134147-1', '1013@20200522134453-0'}
**** TESTCASE COMPLETED :  TESTED OK ****
 Following Videos Match on the server ****
{'1013@20200522134324-0', '1013@20200522134144-0', '1013@20200522134327-1', '1013@20200522134456-1', '1013@20200522134147-1', '1013@20200522134453-0'}

OS Name:                  Linux
OS Version:               4.4.38-tegra
Firmware Version:         V6.5
MCU HW FW Versions:       P29 C14
Camera FW Versions:       20 21
Software Version:         2.2.0
Build Number:             06
Build Time:               2020 Apr 15 16:58:16
Revision:                 6a470aa

Wifi not connected.

Failsafe:    Total disk space 117GB
             Available disk space 6GB

USB:         Total disk space  58GB
             Available disk space 58GB

All Disks:
/dev/mmcblk0p1     Size:    13GB Free:     3GB
tmpfs              Size:     1GB Free:     1GB
tmpfs              Size:     0GB Free:     0GB
/dev/sda1          Size:   117GB Free:     6GB
/dev/sdb1          Size:    58GB Free:    58GB
tmpfs              Size:     0GB Free:     0GB

