{
	"time": "2020/09/04-04:33:27",
	"sessions": [
		"18@20200904043254-0",
		"18@20200904043302-1"
	],
	"details": [
		{
		"unit": "gsnext1",
		"officer": "gagan",
		"record_time": "10sec."
		}
	],
	"metadata": [
		{
		"event_id": "4",
		"case": "",
		"case2": "",
		"dispatch": "Gender = Female",
		"dispatch2": "Race = Native",
		"ticket": "",
		"ticket2": "",
		"first_name": "Matt",
		"last_name": "Larson",
		"location": "the was car There accident. truck into a",
		"notes": "Worker1"
		}
	]
}

{
	"time": "2020/09/04-04:35:58",
	"sessions": [
		"2@20200904043531-0",
		"2@20200904043531-1"
	],
	"details": [
		{
		"unit": "gsnext1",
		"officer": "gagan",
		"record_time": "10sec."
		}
	],
	"metadata": [
		{
		"event_id": "4",
		"case": "",
		"case2": "",
		"dispatch": "Gender = Female",
		"dispatch2": "Race = Caucasian",
		"ticket": "",
		"ticket2": "",
		"first_name": "Trevor",
		"last_name": "Elliott",
		"location": "the There was into truck a crash ",
		"notes": "Worker1"
		}
	]
}

{
	"time": "2020/09/04-07:05:10",
	"sessions": [
		"18@20200904070436-0",
		"18@20200904070438-1"
	],
	"details": [
		{
		"unit": "gsnext1",
		"officer": "gagan",
		"record_time": "10sec."
		}
	],
	"metadata": [
		{
		"event_id": "4",
		"case": "",
		"case2": "",
		"dispatch": "Gender = Male",
		"dispatch2": "Race = Hispanic",
		"ticket": "",
		"ticket2": "",
		"first_name": "Ryan",
		"last_name": "Almirola",
		"location": "was the crash truck ",
		"notes": "Worker1"
		}
	]
}

{
	"time": "2020/09/04-07:06:56",
	"sessions": [
		"2@20200904070622-0",
		"2@20200904070625-1"
	],
	"details": [
		{
		"unit": "gsnext1",
		"officer": "gagan",
		"record_time": "10sec."
		}
	],
	"metadata": [
		{
		"event_id": "0",
		"case": "",
		"case2": "",
		"dispatch": "Gender = Female",
		"dispatch2": "Race = Black",
		"ticket": "",
		"ticket2": "",
		"first_name": "Denny",
		"last_name": "Bayne",
		"location": "car There crash into the was truck ",
		"notes": "Worker1"
		}
	]
}

{
	"time": "2020/09/04-07:46:38",
	"sessions": [
		"18@20200904074613-0",
		"18@20200904074622-1"
	],
	"details": [
		{
		"unit": "gsnext1",
		"officer": "gagan",
		"record_time": "10sec."
		}
	],
	"metadata": [
		{
		"event_id": "4",
		"case": "",
		"case2": "",
		"dispatch": "Gender = Female",
		"dispatch2": "Race = Hispanic",
		"ticket": "",
		"ticket2": "",
		"first_name": "Trevor",
		"last_name": "Kahne",
		"location": "a truck car the accident. into ",
		"notes": "Worker1"
		}
	]
}

{
	"time": "2020/09/04-07:47:38",
	"sessions": [
		"2@20200904074705-0",
		"2@20200904074714-1"
	],
	"details": [
		{
		"unit": "gsnext1",
		"officer": "gagan",
		"record_time": "10sec."
		}
	],
	"metadata": [
		{
		"event_id": "0",
		"case": "",
		"case2": "",
		"dispatch": "Gender = Male",
		"dispatch2": "Race = Asian",
		"ticket": "",
		"ticket2": "",
		"first_name": "Denny",
		"last_name": "Earnhardt",
		"location": "accident. There was crash ",
		"notes": "Worker1"
		}
	]
}

