{
	"time": "2020/05/28-15:12:59",
	"sessions": [
		"1013@20200528171232-0",
		"1013@20200528171234-1"
	],
	"details": [
		{
		"unit": "gsnext1",
		"officer": "gsharma",
		"record_time": "10sec."
		}
	],
	"metadata": [
		{
		"event_id": "4",
		"case": "",
		"case2": "",
		"dispatch": "Gender = Male",
		"dispatch2": "Race = Native",
		"ticket": "",
		"ticket2": "",
		"first_name": "Chase",
		"last_name": "Stenhouse Jr.",
		"location": "car There accident. was truck crash a ",
		"notes": "Worker1"
		}
	]
}

{
	"time": "2020/05/28-15:14:03",
	"sessions": [
		"1013@20200528171334-0",
		"1013@20200528171337-1"
	],
	"details": [
		{
		"unit": "gsnext1",
		"officer": "gsharma",
		"record_time": "10sec."
		}
	],
	"metadata": [
		{
		"event_id": "3",
		"case": "",
		"case2": "",
		"dispatch": "Gender = Male",
		"dispatch2": "Race = Black",
		"ticket": "",
		"ticket2": "",
		"first_name": "Jamie",
		"last_name": "Bowman",
		"location": "crash the a truck was car ",
		"notes": "Worker1"
		}
	]
}

