{
	"time": "2020/10/28-12:52:56",
	"sessions": [
		"5@20201028145235-0",
		"5@20201028145237-1"
	],
	"details": [
		{
		"unit": "gsnext",
		"officer": "gagan",
		"record_time": "10sec."
		}
	],
	"metadata": [
		{
		"event_id": "2",
		"case": "",
		"case2": "",
		"dispatch": "Gender = Male",
		"dispatch2": "Race = Black",
		"ticket": "",
		"ticket2": "",
		"first_name": "Jamie",
		"last_name": "Logano",
		"location": "crash the accident. There a ",
		"notes": "Worker1"
		}
	]
}

{
	"time": "2020/10/28-12:55:19",
	"sessions": [
		"5@20201028145457-0",
		"5@20201028145500-1"
	],
	"details": [
		{
		"unit": "gsnext",
		"officer": "gagan",
		"record_time": "10sec."
		}
	],
	"metadata": [
		{
		"event_id": "4",
		"case": "",
		"case2": "",
		"dispatch": "Gender = Male",
		"dispatch2": "Race = Native",
		"ticket": "",
		"ticket2": "",
		"first_name": "Trevor",
		"last_name": "Blaney",
		"location": "the into a crash ",
		"notes": "Worker1"
		}
	]
}

{
	"time": "2020/10/28-13:27:37",
	"sessions": [
		"5@20201028152715-0",
		"5@20201028152718-1"
	],
	"details": [
		{
		"unit": "gsnext",
		"officer": "gagan",
		"record_time": "10sec."
		}
	],
	"metadata": [
		{
		"event_id": "4",
		"case": "",
		"case2": "",
		"dispatch": "Gender = Female",
		"dispatch2": "Race = Caucasian",
		"ticket": "",
		"ticket2": "",
		"first_name": "Aric",
		"last_name": "Hamlin",
		"location": "accident. a car was There truck ",
		"notes": "Worker1"
		}
	]
}

