{
	"time": "2020/08/28-09:13:39",
	"sessions": [
		"18@20200828091258-0",
		"18@20200828091300-1"
	],
	"details": [
		{
		"unit": "gsnext1",
		"officer": "gagan",
		"record_time": "10sec."
		}
	],
	"metadata": [
		{
		"event_id": "1",
		"case": "",
		"case2": "",
		"dispatch": "Gender = Female",
		"dispatch2": "Race = Native",
		"ticket": "",
		"ticket2": "",
		"first_name": "David",
		"last_name": "Truex Jr.",
		"location": "crash into accident. the truck was a car",
		"notes": "Worker1"
		}
	]
}

{
	"time": "2020/08/28-09:15:25",
	"sessions": [
		"2@20200828091444-0",
		"2@20200828091447-1"
	],
	"details": [
		{
		"unit": "gsnext1",
		"officer": "gagan",
		"record_time": "10sec."
		}
	],
	"metadata": [
		{
		"event_id": "1",
		"case": "",
		"case2": "",
		"dispatch": "Gender = Female",
		"dispatch2": "Race = Other",
		"ticket": "",
		"ticket2": "",
		"first_name": "Paul",
		"last_name": "Buescher",
		"location": "was car There a ",
		"notes": "Worker1"
		}
	]
}

{
	"time": "2020/08/28-10:47:22",
	"sessions": [
		"18@20200828104640-0",
		"18@20200828104642-1"
	],
	"details": [
		{
		"unit": "gsnext1",
		"officer": "gagan",
		"record_time": "10sec."
		}
	],
	"metadata": [
		{
		"event_id": "0",
		"case": "",
		"case2": "",
		"dispatch": "Gender = Female",
		"dispatch2": "Race = Hispanic",
		"ticket": "",
		"ticket2": "",
		"first_name": "Darrell",
		"last_name": "Bowman",
		"location": "a car crash ",
		"notes": "Worker1"
		}
	]
}

{
	"time": "2020/08/28-10:49:09",
	"sessions": [
		"2@20200828104826-0",
		"2@20200828104829-1"
	],
	"details": [
		{
		"unit": "gsnext1",
		"officer": "gagan",
		"record_time": "10sec."
		}
	],
	"metadata": [
		{
		"event_id": "2",
		"case": "",
		"case2": "",
		"dispatch": "Gender = Female",
		"dispatch2": "Race = Native",
		"ticket": "",
		"ticket2": "",
		"first_name": "Matt",
		"last_name": "Logano",
		"location": "There truck crash was into accident. a ",
		"notes": "Worker1"
		}
	]
}

