{
	"time": "2020/10/29-08:08:10",
	"sessions": [
		"5@20201029100750-0",
		"5@20201029100752-1",
		"5@20201029100754-2"
	],
	"details": [
		{
		"unit": "gsnext",
		"officer": "gagan",
		"record_time": "10sec."
		}
	],
	"metadata": [
		{
		"event_id": "2",
		"case": "",
		"case2": "",
		"dispatch": "Gender = Female",
		"dispatch2": "Race = Hispanic",
		"ticket": "",
		"ticket2": "",
		"first_name": "Kyle",
		"last_name": "Buescher",
		"location": "truck was car the ",
		"notes": "Worker1"
		}
	]
}

{
	"time": "2020/10/29-08:10:34",
	"sessions": [
		"5@20201029101014-0",
		"5@20201029101016-1",
		"5@20201029101018-2"
	],
	"details": [
		{
		"unit": "gsnext",
		"officer": "gagan",
		"record_time": "10sec."
		}
	],
	"metadata": [
		{
		"event_id": "0",
		"case": "",
		"case2": "",
		"dispatch": "Gender = Female",
		"dispatch2": "Race = Other",
		"ticket": "",
		"ticket2": "",
		"first_name": "Kevin",
		"last_name": "Allmendinger",
		"location": "the There a into car crash accident. was",
		"notes": "Worker1"
		}
	]
}

{
	"time": "2020/10/29-09:27:14",
	"sessions": [
		"18@20201029092654-0",
		"18@20201029092656-1",
		"18@20201029092659-2"
	],
	"details": [
		{
		"unit": "gsnext",
		"officer": "gagan",
		"record_time": "10sec."
		}
	],
	"metadata": [
		{
		"event_id": "3",
		"case": "",
		"case2": "",
		"dispatch": "Gender = Female",
		"dispatch2": "Race = Caucasian",
		"ticket": "",
		"ticket2": "",
		"first_name": "Joey",
		"last_name": "DiBenedetto",
		"location": "a car truck accident. into ",
		"notes": "Worker1"
		}
	]
}

{
	"time": "2020/10/29-09:29:02",
	"sessions": [
		"2@20201029092842-0",
		"2@20201029092844-1",
		"2@20201029092846-2"
	],
	"details": [
		{
		"unit": "gsnext",
		"officer": "gagan",
		"record_time": "10sec."
		}
	],
	"metadata": [
		{
		"event_id": "3",
		"case": "",
		"case2": "",
		"dispatch": "Gender = Female",
		"dispatch2": "Race = Other",
		"ticket": "",
		"ticket2": "",
		"first_name": "Chris",
		"last_name": "Byron",
		"location": "truck ",
		"notes": "Worker1"
		}
	]
}

{
	"time": "2020/10/29-09:46:58",
	"sessions": [
		"18@20201029094638-0",
		"18@20201029094640-1",
		"18@20201029094643-2"
	],
	"details": [
		{
		"unit": "gsnext1",
		"officer": "gagan",
		"record_time": "10sec."
		}
	],
	"metadata": [
		{
		"event_id": "3",
		"case": "",
		"case2": "",
		"dispatch": "Gender = Male",
		"dispatch2": "Race = Native",
		"ticket": "",
		"ticket2": "",
		"first_name": "Ryan",
		"last_name": "Johnson",
		"location": "There the into truck a accident. car was",
		"notes": "Worker1"
		}
	]
}

{
	"time": "2020/10/29-09:48:46",
	"sessions": [
		"2@20201029094826-0",
		"2@20201029094828-1",
		"2@20201029094830-2"
	],
	"details": [
		{
		"unit": "gsnext1",
		"officer": "gagan",
		"record_time": "10sec."
		}
	],
	"metadata": [
		{
		"event_id": "4",
		"case": "",
		"case2": "",
		"dispatch": "Gender = Female",
		"dispatch2": "Race = Black",
		"ticket": "",
		"ticket2": "",
		"first_name": "Martin",
		"last_name": "Wallace Jr.",
		"location": "accident. a truck into was crash the ",
		"notes": "Worker1"
		}
	]
}

{
	"time": "2020/10/29-10:00:37",
	"sessions": [
		"18@20201029100014-0",
		"18@20201029100017-1",
		"18@20201029100019-2"
	],
	"details": [
		{
		"unit": "gsnext1",
		"officer": "gagan",
		"record_time": "10sec."
		}
	],
	"metadata": [
		{
		"event_id": "4",
		"case": "",
		"case2": "",
		"dispatch": "Gender = Male",
		"dispatch2": "Race = Other",
		"ticket": "",
		"ticket2": "",
		"first_name": "Ryan",
		"last_name": "Marks",
		"location": "accident. the car crash There truck ",
		"notes": "Worker1"
		}
	]
}

{
	"time": "2020/10/29-10:02:24",
	"sessions": [
		"2@20201029100204-0",
		"2@20201029100207-1",
		"2@20201029100209-2"
	],
	"details": [
		{
		"unit": "gsnext1",
		"officer": "gagan",
		"record_time": "10sec."
		}
	],
	"metadata": [
		{
		"event_id": "1",
		"case": "",
		"case2": "",
		"dispatch": "Gender = Female",
		"dispatch2": "Race = Asian",
		"ticket": "",
		"ticket2": "",
		"first_name": "Kyle",
		"last_name": "McMurray",
		"location": "truck crash the a was accident. There ",
		"notes": "Worker1"
		}
	]
}

{
	"time": "2020/10/29-11:54:16",
	"sessions": [
		"18@20201029115356-0",
		"18@20201029115359-1",
		"18@20201029115401-2"
	],
	"details": [
		{
		"unit": "gsnext1",
		"officer": "gagan",
		"record_time": "10sec."
		}
	],
	"metadata": [
		{
		"event_id": "3",
		"case": "",
		"case2": "",
		"dispatch": "Gender = Female",
		"dispatch2": "Race = Black",
		"ticket": "",
		"ticket2": "",
		"first_name": "William",
		"last_name": "Bowyer",
		"location": "There accident. into the was a car truck",
		"notes": "Worker1"
		}
	]
}

{
	"time": "2020/10/29-11:56:04",
	"sessions": [
		"2@20201029115544-0",
		"2@20201029115546-1",
		"2@20201029115549-2"
	],
	"details": [
		{
		"unit": "gsnext1",
		"officer": "gagan",
		"record_time": "10sec."
		}
	],
	"metadata": [
		{
		"event_id": "4",
		"case": "",
		"case2": "",
		"dispatch": "Gender = Female",
		"dispatch2": "Race = Black",
		"ticket": "",
		"ticket2": "",
		"first_name": "Austin",
		"last_name": "Suarez",
		"location": "accident. crash There the was car a ",
		"notes": "Worker1"
		}
	]
}

{
	"time": "2020/10/29-12:49:56",
	"sessions": [
		"18@20201029124936-0",
		"18@20201029124938-1",
		"18@20201029124940-2"
	],
	"details": [
		{
		"unit": "gsnext1",
		"officer": "gagan",
		"record_time": "10sec."
		}
	],
	"metadata": [
		{
		"event_id": "4",
		"case": "",
		"case2": "",
		"dispatch": "Gender = Male",
		"dispatch2": "Race = Black",
		"ticket": "",
		"ticket2": "",
		"first_name": "Denny",
		"last_name": "McDowell",
		"location": "into accident. a truck car was There the",
		"notes": "Worker1"
		}
	]
}

{
	"time": "2020/10/29-12:52:14",
	"sessions": [
		"2@20201029125154-0",
		"2@20201029125156-1",
		"2@20201029125159-2"
	],
	"details": [
		{
		"unit": "gsnext1",
		"officer": "gagan",
		"record_time": "10sec."
		}
	],
	"metadata": [
		{
		"event_id": "3",
		"case": "",
		"case2": "",
		"dispatch": "Gender = Male",
		"dispatch2": "Race = Black",
		"ticket": "",
		"ticket2": "",
		"first_name": "Ryan",
		"last_name": "Stenhouse Jr.",
		"location": "was a crash truck There ",
		"notes": "Worker1"
		}
	]
}

