{
	"time": "2020/08/17-09:16:06",
	"sessions": [
		"18@20200817091547-0",
		"18@20200817091549-1"
	],
	"details": [
		{
		"unit": "gsnext1",
		"officer": "gagan",
		"record_time": "10sec."
		}
	],
	"metadata": [
		{
		"event_id": "0",
		"case": "",
		"case2": "",
		"dispatch": "Gender = Male",
		"dispatch2": "Race = Native",
		"ticket": "",
		"ticket2": "",
		"first_name": "Matt",
		"last_name": "Ragan",
		"location": "was There a truck ",
		"notes": "Worker1"
		}
	]
}

{
	"time": "2020/08/17-09:17:53",
	"sessions": [
		"2@20200817091733-0",
		"2@20200817091736-1"
	],
	"details": [
		{
		"unit": "gsnext1",
		"officer": "gagan",
		"record_time": "10sec."
		}
	],
	"metadata": [
		{
		"event_id": "2",
		"case": "",
		"case2": "",
		"dispatch": "Gender = Male",
		"dispatch2": "Race = Hispanic",
		"ticket": "",
		"ticket2": "",
		"first_name": "David",
		"last_name": "Bayne",
		"location": "truck car was into a accident. There cra",
		"notes": "Worker1"
		}
	]
}

