{
	"time": "2020/04/28-12:55:05",
	"sessions": [
		"14@20200428125544-0",
		"14@20200428125546-1",
		"14@20200428125549-2"
	],
	"details": [
		{
		"unit": "gsnext1",
		"officer": "gsnext1",
		"record_time": "10sec."
		}
	],
	"metadata": [
		{
		"event_id": "1",
		"case": "",
		"case2": "",
		"dispatch": "Gender = Male",
		"dispatch2": "Race = Hispanic",
		"ticket": "",
		"ticket2": "",
		"first_name": "David",
		"last_name": "Stenhouse Jr.",
		"location": "crash a car the There accident. ",
		"notes": "Worker1"
		}
	]
}

{
	"time": "2020/04/28-12:56:23",
	"sessions": [
		"2@20200428125702-0",
		"2@20200428125705-1",
		"2@20200428125707-2"
	],
	"details": [
		{
		"unit": "gsnext1",
		"officer": "gsnext1",
		"record_time": "10sec."
		}
	],
	"metadata": [
		{
		"event_id": "0",
		"case": "",
		"case2": "",
		"dispatch": "Gender = Female",
		"dispatch2": "Race = Other",
		"ticket": "",
		"ticket2": "",
		"first_name": "Martin",
		"last_name": "Harvick",
		"location": "car accident. into ",
		"notes": "Worker1"
		}
	]
}

