{
	"time": "2020/10/01-02:54:03",
	"sessions": [
		"5@20201001045335-0",
		"5@20201001045338-1"
	],
	"details": [
		{
		"unit": "gsnext",
		"officer": "gagan",
		"record_time": "10sec."
		}
	],
	"metadata": [
		{
		"event_id": "1",
		"case": "",
		"case2": "",
		"dispatch": "Gender = Female",
		"dispatch2": "Race = Other",
		"ticket": "",
		"ticket2": "",
		"first_name": "Clint",
		"last_name": "Stenhouse Jr.",
		"location": "There was truck ",
		"notes": "Worker1"
		}
	]
}

{
	"time": "2020/10/01-02:55:56",
	"sessions": [
		"5@20201001045527-0",
		"5@20201001045530-1"
	],
	"details": [
		{
		"unit": "gsnext",
		"officer": "gagan",
		"record_time": "10sec."
		}
	],
	"metadata": [
		{
		"event_id": "3",
		"case": "",
		"case2": "",
		"dispatch": "Gender = Male",
		"dispatch2": "Race = Black",
		"ticket": "",
		"ticket2": "",
		"first_name": "Kasey",
		"last_name": "Wallace Jr.",
		"location": "crash There into car a was accident. the",
		"notes": "Worker1"
		}
	]
}

{
	"time": "2020/10/01-11:32:40",
	"sessions": [
		"5@20201001133211-0",
		"5@20201001133213-1"
	],
	"details": [
		{
		"unit": "gsnext",
		"officer": "gagan",
		"record_time": "10sec."
		}
	],
	"metadata": [
		{
		"event_id": "3",
		"case": "",
		"case2": "",
		"dispatch": "Gender = Male",
		"dispatch2": "Race = Hispanic",
		"ticket": "",
		"ticket2": "",
		"first_name": "Ryan",
		"last_name": "Kahne",
		"location": "accident. the There was into a ",
		"notes": "Worker1"
		}
	]
}

{
	"time": "2020/10/01-11:34:32",
	"sessions": [
		"5@20201001133403-0",
		"5@20201001133406-1"
	],
	"details": [
		{
		"unit": "gsnext",
		"officer": "gagan",
		"record_time": "10sec."
		}
	],
	"metadata": [
		{
		"event_id": "2",
		"case": "",
		"case2": "",
		"dispatch": "Gender = Male",
		"dispatch2": "Race = Native",
		"ticket": "",
		"ticket2": "",
		"first_name": "Kyle",
		"last_name": "Wallace Jr.",
		"location": "crash truck into ",
		"notes": "Worker1"
		}
	]
}

{
	"time": "2020/10/01-11:46:31",
	"sessions": [
		"5@20201001134602-0",
		"5@20201001134605-1"
	],
	"details": [
		{
		"unit": "gsnext",
		"officer": "gagan",
		"record_time": "10sec."
		}
	],
	"metadata": [
		{
		"event_id": "2",
		"case": "",
		"case2": "",
		"dispatch": "Gender = Male",
		"dispatch2": "Race = Asian",
		"ticket": "",
		"ticket2": "",
		"first_name": "Ryan",
		"last_name": "Allmendinger",
		"location": "accident. crash truck into a was ",
		"notes": "Worker1"
		}
	]
}

{
	"time": "2020/10/01-11:48:23",
	"sessions": [
		"5@20201001134754-0",
		"5@20201001134757-1"
	],
	"details": [
		{
		"unit": "gsnext",
		"officer": "gagan",
		"record_time": "10sec."
		}
	],
	"metadata": [
		{
		"event_id": "1",
		"case": "",
		"case2": "",
		"dispatch": "Gender = Female",
		"dispatch2": "Race = Black",
		"ticket": "",
		"ticket2": "",
		"first_name": "Kyle",
		"last_name": "Newman",
		"location": "a car the crash was accident. There ",
		"notes": "Worker1"
		}
	]
}

{
	"time": "2020/10/01-12:30:46",
	"sessions": [
		"5@20201001143018-0",
		"5@20201001143021-1"
	],
	"details": [
		{
		"unit": "gsnext",
		"officer": "gagan",
		"record_time": "10sec."
		}
	],
	"metadata": [
		{
		"event_id": "4",
		"case": "",
		"case2": "",
		"dispatch": "Gender = Male",
		"dispatch2": "Race = Caucasian",
		"ticket": "",
		"ticket2": "",
		"first_name": "Aric",
		"last_name": "Bowman",
		"location": "a was the accident. into crash ",
		"notes": "Worker1"
		}
	]
}

{
	"time": "2020/10/01-12:33:09",
	"sessions": [
		"5@20201001143240-0",
		"5@20201001143243-1"
	],
	"details": [
		{
		"unit": "gsnext",
		"officer": "gagan",
		"record_time": "10sec."
		}
	],
	"metadata": [
		{
		"event_id": "2",
		"case": "",
		"case2": "",
		"dispatch": "Gender = Female",
		"dispatch2": "Race = Black",
		"ticket": "",
		"ticket2": "",
		"first_name": "Daniel",
		"last_name": "Marks",
		"location": "was a accident. There into car truck the",
		"notes": "Worker1"
		}
	]
}

{
	"time": "2020/10/01-13:21:04",
	"sessions": [
		"5@20201001152035-0",
		"5@20201001152038-1"
	],
	"details": [
		{
		"unit": "gsnext",
		"officer": "gagan",
		"record_time": "10sec."
		}
	],
	"metadata": [
		{
		"event_id": "0",
		"case": "",
		"case2": "",
		"dispatch": "Gender = Male",
		"dispatch2": "Race = Black",
		"ticket": "",
		"ticket2": "",
		"first_name": "Justin",
		"last_name": "Bowyer",
		"location": "accident. crash was There into truck car",
		"notes": "Worker1"
		}
	]
}

{
	"time": "2020/10/01-13:22:58",
	"sessions": [
		"5@20201001152227-0",
		"5@20201001152230-1"
	],
	"details": [
		{
		"unit": "gsnext",
		"officer": "gagan",
		"record_time": "10sec."
		}
	],
	"metadata": [
		{
		"event_id": "0",
		"case": "",
		"case2": "",
		"dispatch": "Gender = Female",
		"dispatch2": "Race = Native",
		"ticket": "",
		"ticket2": "",
		"first_name": "Aric",
		"last_name": "Newman",
		"location": "the accident. truck into a crash car ",
		"notes": "Worker1"
		}
	]
}

{
	"time": "2020/10/01-13:46:57",
	"sessions": [
		"5@20201001154628-0",
		"5@20201001154631-1"
	],
	"details": [
		{
		"unit": "gsnext",
		"officer": "gagan",
		"record_time": "10sec."
		}
	],
	"metadata": [
		{
		"event_id": "4",
		"case": "",
		"case2": "",
		"dispatch": "Gender = Male",
		"dispatch2": "Race = Hispanic",
		"ticket": "",
		"ticket2": "",
		"first_name": "Chase",
		"last_name": "McDowell",
		"location": "car crash was into accident. There ",
		"notes": "Worker1"
		}
	]
}

{
	"time": "2020/10/01-13:48:49",
	"sessions": [
		"5@20201001154820-0",
		"5@20201001154823-1"
	],
	"details": [
		{
		"unit": "gsnext",
		"officer": "gagan",
		"record_time": "10sec."
		}
	],
	"metadata": [
		{
		"event_id": "0",
		"case": "",
		"case2": "",
		"dispatch": "Gender = Female",
		"dispatch2": "Race = Native",
		"ticket": "",
		"ticket2": "",
		"first_name": "Chris",
		"last_name": "Almirola",
		"location": "into accident. the There car truck crash",
		"notes": "Worker1"
		}
	]
}

