{
	"time": "2020/09/23-08:42:23",
	"sessions": [
		"5@20200923104200-0",
		"5@20200923104202-1"
	],
	"details": [
		{
		"unit": "gsnext",
		"officer": "gagan",
		"record_time": "10sec."
		}
	],
	"metadata": [
		{
		"event_id": "1",
		"case": "",
		"case2": "",
		"dispatch": "Gender = Male",
		"dispatch2": "Race = Hispanic",
		"ticket": "",
		"ticket2": "",
		"first_name": "Ryan",
		"last_name": "Busch",
		"location": "a truck There crash into accident. car ",
		"notes": "Worker1"
		}
	]
}

{
	"time": "2020/09/23-08:44:46",
	"sessions": [
		"5@20200923104423-0",
		"5@20200923104425-1"
	],
	"details": [
		{
		"unit": "gsnext",
		"officer": "gagan",
		"record_time": "10sec."
		}
	],
	"metadata": [
		{
		"event_id": "1",
		"case": "",
		"case2": "",
		"dispatch": "Gender = Female",
		"dispatch2": "Race = Other",
		"ticket": "",
		"ticket2": "",
		"first_name": "Jimmie",
		"last_name": "McDowell",
		"location": "was into a There truck crash accident. c",
		"notes": "Worker1"
		}
	]
}

{
	"time": "2020/09/23-09:02:36",
	"sessions": [
		"5@20200923110213-0",
		"5@20200923110215-1"
	],
	"details": [
		{
		"unit": "gsnext",
		"officer": "gagan",
		"record_time": "10sec."
		}
	],
	"metadata": [
		{
		"event_id": "2",
		"case": "",
		"case2": "",
		"dispatch": "Gender = Female",
		"dispatch2": "Race = Native",
		"ticket": "",
		"ticket2": "",
		"first_name": "Ricky",
		"last_name": "Dillon",
		"location": "was a accident. into the truck ",
		"notes": "Worker1"
		}
	]
}

{
	"time": "2020/09/23-09:04:28",
	"sessions": [
		"5@20200923110405-0",
		"5@20200923110407-1"
	],
	"details": [
		{
		"unit": "gsnext",
		"officer": "gagan",
		"record_time": "10sec."
		}
	],
	"metadata": [
		{
		"event_id": "2",
		"case": "",
		"case2": "",
		"dispatch": "Gender = Male",
		"dispatch2": "Race = Other",
		"ticket": "",
		"ticket2": "",
		"first_name": "Jeffrey",
		"last_name": "Byron",
		"location": "a crash ",
		"notes": "Worker1"
		}
	]
}

{
	"time": "2020/09/23-13:14:12",
	"sessions": [
		"5@20200923151349-0",
		"5@20200923151352-1"
	],
	"details": [
		{
		"unit": "gsnext",
		"officer": "gagan",
		"record_time": "10sec."
		}
	],
	"metadata": [
		{
		"event_id": "0",
		"case": "",
		"case2": "",
		"dispatch": "Gender = Male",
		"dispatch2": "Race = Caucasian",
		"ticket": "",
		"ticket2": "",
		"first_name": "William",
		"last_name": "Hamlin",
		"location": "car There a crash was into ",
		"notes": "Worker1"
		}
	]
}

{
	"time": "2020/09/23-13:16:04",
	"sessions": [
		"5@20200923151541-0",
		"5@20200923151544-1"
	],
	"details": [
		{
		"unit": "gsnext",
		"officer": "gagan",
		"record_time": "10sec."
		}
	],
	"metadata": [
		{
		"event_id": "0",
		"case": "",
		"case2": "",
		"dispatch": "Gender = Female",
		"dispatch2": "Race = Native",
		"ticket": "",
		"ticket2": "",
		"first_name": "Ryan",
		"last_name": "Dillon",
		"location": "truck car into accident. the a was crash",
		"notes": "Worker1"
		}
	]
}

{
	"time": "2020/09/23-13:34:37",
	"sessions": [
		"5@20200923153414-0",
		"5@20200923153416-1"
	],
	"details": [
		{
		"unit": "gsnext",
		"officer": "gagan",
		"record_time": "10sec."
		}
	],
	"metadata": [
		{
		"event_id": "0",
		"case": "",
		"case2": "",
		"dispatch": "Gender = Female",
		"dispatch2": "Race = Hispanic",
		"ticket": "",
		"ticket2": "",
		"first_name": "Aric",
		"last_name": "Earnhardt",
		"location": "There was a ",
		"notes": "Worker1"
		}
	]
}

{
	"time": "2020/09/23-13:36:29",
	"sessions": [
		"5@20200923153606-0",
		"5@20200923153608-1"
	],
	"details": [
		{
		"unit": "gsnext",
		"officer": "gagan",
		"record_time": "10sec."
		}
	],
	"metadata": [
		{
		"event_id": "1",
		"case": "",
		"case2": "",
		"dispatch": "Gender = Male",
		"dispatch2": "Race = Caucasian",
		"ticket": "",
		"ticket2": "",
		"first_name": "Kasey",
		"last_name": "Earnhardt",
		"location": "into accident. car a There the crash was",
		"notes": "Worker1"
		}
	]
}

